FileName,Category,CategoryCulture,Keyword,KeywordCulture,MetadataKey,MetadataValue,Collection,PreviewFileName,DecorationTechnology,WidthInMm,HeightInMm
Koala.jpg,animal,zh-CN,south,zh-CN,name,koala,animal,Koala-preview.jpg,Embroidery,250,250
Koala.jpg,animal,zh-CN,south,zh-CN,merchant,cimpress-china,animal,Koala-preview.jpg,Embroidery,250,250
Koala.jpg,animal,zh-CN,cute,zh-CN,name,koala,animal,Koala-preview.jpg,Embroidery,250,250
Koala.jpg,animal,zh-CN,cute,zh-CN,merchant,cimpress-china,animal,Koala-preview.jpg,Embroidery,250,250
Desert.jpg,scene,zh-CN,dry,zh-CN,merchant,cimpress-china,scene,,Embroidery,250,250
Desert.jpg,scene,zh-CN,dry,en-US,name,desert,scene,,Embroidery,250,250
